spi_master/tb_spi_master.vcd
$date
	Tue Nov 11 12:56:33 2025
$end
$version
	ModelSim Version 2021.1
$end
$timescale
	1ps
$end

$scope module tb_spi_master $end
$var parameter 32 ! WIDTH $end
$var reg 1 " clk $end
$var reg 1 # rst $end
$var reg 1 $ start $end
$var reg 8 % tx_data [7:0] $end
$var wire 1 & rx_data [7] $end
$var wire 1 ' rx_data [6] $end
$var wire 1 ( rx_data [5] $end
$var wire 1 ) rx_data [4] $end
$var wire 1 * rx_data [3] $end
$var wire 1 + rx_data [2] $end
$var wire 1 , rx_data [1] $end
$var wire 1 - rx_data [0] $end
$var wire 1 . rx_valid $end
$var wire 1 / busy $end
$var wire 1 0 sclk $end
$var wire 1 1 cs_n $end
$var wire 1 2 mosi $end
$var reg 1 3 miso $end

$scope module dut $end
$var parameter 32 4 WIDTH $end
$var wire 1 5 clk $end
$var wire 1 6 rst $end
$var wire 1 7 start $end
$var wire 1 8 tx_data [7] $end
$var wire 1 9 tx_data [6] $end
$var wire 1 : tx_data [5] $end
$var wire 1 ; tx_data [4] $end
$var wire 1 < tx_data [3] $end
$var wire 1 = tx_data [2] $end
$var wire 1 > tx_data [1] $end
$var wire 1 ? tx_data [0] $end
$var wire 1 @ miso $end
$var wire 1 2 mosi $end
$var wire 1 0 sclk $end
$var wire 1 1 cs_n $end
$var wire 1 & rx_data [7] $end
$var wire 1 ' rx_data [6] $end
$var wire 1 ( rx_data [5] $end
$var wire 1 ) rx_data [4] $end
$var wire 1 * rx_data [3] $end
$var wire 1 + rx_data [2] $end
$var wire 1 , rx_data [1] $end
$var wire 1 - rx_data [0] $end
$var wire 1 . rx_valid $end
$var wire 1 A busy $end
$var wire 1 B done $end

$scope module u_tx $end
$var parameter 32 C WIDTH $end
$var wire 1 5 clk $end
$var wire 1 6 rst $end
$var wire 1 7 start $end
$var wire 1 8 tx_data [7] $end
$var wire 1 9 tx_data [6] $end
$var wire 1 : tx_data [5] $end
$var wire 1 ; tx_data [4] $end
$var wire 1 < tx_data [3] $end
$var wire 1 = tx_data [2] $end
$var wire 1 > tx_data [1] $end
$var wire 1 ? tx_data [0] $end
$var reg 1 D sclk $end
$var reg 1 E mosi $end
$var reg 1 F cs_n $end
$var reg 1 G busy $end
$var reg 1 H done $end
$upscope $end

$scope module u_rx $end
$var parameter 32 I WIDTH $end
$var wire 1 5 clk $end
$var wire 1 6 rst $end
$var wire 1 0 sclk $end
$var wire 1 1 cs_n $end
$var wire 1 @ miso $end
$var reg 8 J rx_data [7:0] $end
$var reg 1 K rx_valid $end
$var reg 4 L bit_cnt [3:0] $end
$var reg 8 M shift_reg [7:0] $end
$upscope $end
$upscope $end
$upscope $end
$enddefinitions $end
#0
$dumpvars
0"
1#
0$
b0 %
03
0D
0E
1F
0G
0H
b0 J
0K
b0 L
bx M
b1000 !
b1000 4
b1000 C
b1000 I
0-
0,
0+
0*
0)
0(
0'
0&
0.
z/
00
11
02
0A
0B
0@
0?
0>
0=
0<
0;
0:
09
08
07
16
05
$end
#5000
1"
15
#10000
0"
05
#15000
1"
15
#20000
0#
b10100101 %
0"
1?
1=
1:
18
06
05
#25000
1"
15
1D
0F
1G
01
1A
10
bx0 M
b1 L
#30000
1$
0"
17
05
#35000
1"
15
0D
00
#40000
0$
0"
07
05
#45000
1"
15
1D
10
bx00 M
b10 L
#50000
0"
05
#55000
1"
15
0D
00
#60000
0"
05
#65000
1"
15
1D
10
bx000 M
b11 L
#67000
13
1@
#70000
0"
05
#75000
1"
15
0D
00
#80000
0"
05
#85000
1"
15
1D
10
bx0001 M
b100 L
#90000
0"
05
#95000
1"
15
0D
00
#100000
0"
05
#105000
1"
15
1D
10
bx00011 M
b101 L
#107000
03
0@
#110000
0"
05
#115000
1"
15
0D
00
#120000
0"
05
#125000
1"
15
1D
10
bx000110 M
b110 L
#130000
0"
05
#135000
1"
15
0D
00
#140000
0"
05
#145000
1"
15
1D
10
bx0001100 M
b111 L
#150000
0"
05
#155000
1"
15
0D
00
#160000
0"
05
#165000
1"
15
1D
10
b11000 M
b1000 L
b11000 J
1K
b0 L
1*
1)
1.
#170000
0"
05
#175000
1"
15
0D
00
#180000
0"
05
#185000
1"
15
1D
10
b110000 M
b1 L
#190000
0"
05
#195000
1"
15
0D
00
#200000
0"
05
#205000
1"
15
1D
10
b1100000 M
b10 L
#210000
0"
05
#215000
1"
15
0D
00
#220000
0"
05
#225000
1"
15
1D
10
b11000000 M
b11 L
#230000
0"
05
#235000
1"
15
0D
00
#240000
0"
05
#245000
1"
15
1D
10
b10000000 M
b100 L
#250000
0"
05
#255000
1"
15
0D
00
#260000
0"
05
#265000
1"
15
1D
10
b0 M
b101 L
#270000
0"
05
#275000
1"
15
0D
00
#280000
0"
05
#285000
1"
15
1D
10
b110 L
#290000
0"
05
#295000
1"
15
0D
00
#300000
0"
05
#305000
1"
15
1D
10
b111 L
#310000
0"
05
#315000
1"
15
0D
00
#320000
0"
05
#325000
1"
15
1D
10
b1000 L
b0 J
b0 L
0*
0)
#330000
0"
05
#335000
1"
15
0D
00
#340000
0"
05
#345000
1"
15
1D
10
b1 L
#350000
0"
05
#355000
1"
15
0D
00
#360000
0"
05
#365000
1"
15
1D
10
b10 L
#370000
0"
05
#375000
1"
15
0D
00
#380000
0"
05
#385000
1"
15
1D
10
b11 L
#390000
0"
05
#395000
1"
15
0D
00
#400000
0"
05
#405000
1"
15
1D
10
b100 L
#410000
0"
05
#415000
1"
15
0D
00
#420000
0"
05
#425000
1"
15
1D
10
b101 L
#430000
0"
05
#435000
1"
15
0D
00
#440000
0"
05
#445000
1"
15
1D
10
b110 L
#450000
0"
05
#455000
1"
15
0D
00
#460000
0"
05
#465000
1"
15
1D
10
b111 L
#470000
0"
05
#475000
1"
15
0D
00
#480000
0"
05
#485000
1"
15
1D
10
b1000 L
b0 L
#490000
0"
05
#495000
1"
15
0D
00
#500000
0"
05
#505000
1"
15
1D
10
b1 L
#510000
0"
05
#515000
1"
15
0D
00
#520000
0"
05
#525000
1"
15
1D
10
b10 L
#530000
0"
05
#535000
1"
15
0D
00
#540000
0"
05
#545000
1"
15
1D
10
b11 L
#550000
0"
05
#555000
1"
15
0D
00
#560000
0"
05
#565000
1"
15
1D
10
b100 L
#570000
0"
05
#575000
1"
15
0D
00
#580000
0"
05
#585000
1"
15
1D
10
b101 L
#590000
0"
05
#595000
1"
15
0D
00
#600000
0"
05
#605000
1"
15
1D
10
b110 L
#610000
0"
05
#615000
1"
15
0D
00
#620000
0"
05
#625000
1"
15
1D
10
b111 L
#630000
0"
05
#635000
1"
15
0D
00
#640000
0"
05
#645000
1"
15
1D
10
b1000 L
b0 L
#650000
0"
05
#655000
1"
15
0D
00
#660000
0"
05
#665000
1"
15
1D
10
b1 L
#670000
0"
05
#675000
1"
15
0D
00
#680000
0"
05
#685000
1"
15
1D
10
b10 L
#690000
0"
05
#695000
1"
15
0D
00
#700000
0"
05
#705000
1"
15
1D
10
b11 L
#710000
0"
05
#715000
1"
15
0D
00
#720000
0"
05
#725000
1"
15
1D
10
b100 L
#730000
0"
05
#735000
1"
15
0D
00
#740000
0"
05
#745000
1"
15
1D
10
b101 L
#750000
0"
05
#755000
1"
15
0D
00
#760000
0"
05
#765000
1"
15
1D
10
b110 L
#770000
0"
05
#775000
1"
15
0D
00
#780000
0"
05
#785000
1"
15
1D
10
b111 L
#790000
0"
05
#795000
1"
15
0D
00
#800000
0"
05
#805000
1"
15
1D
10
b1000 L
b0 L
#810000
0"
05
#815000
1"
15
0D
00
#820000
0"
05
#825000
1"
15
1D
10
b1 L
#830000
0"
05
#835000
1"
15
0D
00
#840000
0"
05
#845000
1"
15
1D
10
b10 L
#850000
0"
05
#855000
1"
15
0D
00
#860000
0"
05
#865000
1"
15
1D
10
b11 L
#870000
0"
05
#875000
1"
15
0D
00
#880000
0"
05
#885000
1"
15
1D
10
b100 L
#890000
0"
05
#895000
1"
15
0D
00
#900000
0"
05
#905000
1"
15
1D
10
b101 L
#910000
0"
05
#915000
1"
15
0D
00
#920000
0"
05
#925000
1"
15
1D
10
b110 L
#930000
0"
05
#935000
1"
15
0D
00
#940000
0"
05
#945000
1"
15
1D
10
b111 L
#950000
0"
05
#955000
1"
15
0D
00
#960000
0"
05
#965000
1"
15
1D
10
b1000 L
b0 L
#970000
0"
05
#975000
1"
15
0D
00
#980000
0"
05
#985000
1"
15
1D
10
b1 L
#990000
0"
05
#995000
1"
15
0D
00
#1000000
0"
05
#1005000
1"
15
1D
10
b10 L
#1010000
0"
05
#1015000
1"
15
0D
00
#1020000
0"
05
#1025000
1"
15
1D
10
b11 L
#1030000
0"
05
#1035000
1"
15
0D
00
#1040000
0"
05
#1045000
1"
15
1D
10
b100 L
#1050000
0"
05
#1055000
1"
15
0D
00
#1060000
0"
05
#1065000
1"
15
1D
10
b101 L
#1070000
0"
05
#1075000
1"
15
0D
00
#1080000
0"
05
#1085000
1"
15
1D
10
b110 L
#1090000
0"
05
#1095000
1"
15
0D
00
#1100000
0"
05
#1105000
1"
15
1D
10
b111 L
#1110000
0"
05
#1115000
1"
15
0D
00
#1120000
0"
05
#1125000
1"
15
1D
10
b1000 L
b0 L
#1130000
0"
05
#1135000
1"
15
0D
00
#1140000
0"
05
#1145000
1"
15
1D
10
b1 L
#1150000
0"
05
#1155000
1"
15
0D
00
#1160000
0"
05
#1165000
1"
15
1D
10
b10 L
#1170000
0"
05
#1175000
1"
15
0D
00
#1180000
0"
05
#1185000
1"
15
1D
10
b11 L
#1190000
0"
05
#1195000
1"
15
0D
00
#1200000
0"
05
#1205000
1"
15
1D
10
b100 L
#1210000
0"
05
#1215000
1"
15
0D
00
#1220000
0"
05
#1225000
1"
15
1D
10
b101 L
#1230000
0"
05
#1235000
1"
15
0D
00
#1240000
0"
05
#1245000
1"
15
1D
10
b110 L
#1250000
0"
05
#1255000
1"
15
0D
00
#1260000
0"
05
#1265000
1"
15
1D
10
b111 L
#1270000
0"
05
#1275000
1"
15
0D
00
#1280000
0"
05
#1285000
1"
15
1D
10
b1000 L
b0 L
#1290000
0"
05
#1295000
1"
15
0D
00
#1300000
0"
05
#1305000
1"
15
1D
10
b1 L
#1310000
0"
05
#1315000
1"
15
0D
00
#1320000
0"
05
#1325000
1"
15
1D
10
b10 L
#1330000
0"
05
#1335000
1"
15
0D
00
#1340000
0"
05
#1345000
1"
15
1D
10
b11 L
#1350000
0"
05
#1355000
1"
15
0D
00
#1360000
0"
05
#1365000
1"
15
1D
10
b100 L
#1370000
0"
05
#1375000
1"
15
0D
00
#1380000
0"
05
#1385000
1"
15
1D
10
b101 L
#1390000
0"
05
#1395000
1"
15
0D
00
#1400000
0"
05
#1405000
1"
15
1D
10
b110 L
#1410000
0"
05
#1415000
1"
15
0D
00
#1420000
0"
05
#1425000
1"
15
1D
10
b111 L
#1430000
0"
05
#1435000
1"
15
0D
00
#1440000
0"
05
#1445000
1"
15
1D
10
b1000 L
b0 L
#1450000
0"
05
#1455000
1"
15
0D
00
#1460000
0"
05
#1465000
1"
15
1D
10
b1 L
#1470000
0"
05
#1475000
1"
15
0D
00
#1480000
0"
05
#1485000
1"
15
1D
10
b10 L
#1490000
0"
05
#1495000
1"
15
0D
00
#1500000
0"
05
#1505000
1"
15
1D
10
b11 L
#1510000
0"
05
#1515000
1"
15
0D
00
#1520000
0"
05
#1525000
1"
15
1D
10
b100 L
#1530000
0"
05
#1535000
1"
15
0D
00
#1540000
0"
05
#1545000
1"
15
1D
10
b101 L
#1550000
0"
05
#1555000
1"
15
0D
00
#1560000
0"
05
#1565000
1"
15
1D
10
b110 L
#1570000
0"
05
#1575000
1"
15
0D
00
#1580000
0"
05
#1585000
1"
15
1D
10
b111 L
#1590000
0"
05
#1595000
1"
15
0D
00
#1600000
0"
05
#1605000
1"
15
1D
10
b1000 L
b0 L
#1610000
0"
05
#1615000
1"
15
0D
00
#1620000
0"
05
#1625000
1"
15
1D
10
b1 L
#1630000
0"
05
#1635000
1"
15
0D
00
#1640000
0"
05
#1645000
1"
15
1D
10
b10 L
#1650000
0"
05
#1655000
1"
15
0D
00
#1660000
0"
05
#1665000
1"
15
1D
10
b11 L
#1670000
0"
05
#1675000
1"
15
0D
00
#1680000
0"
05
#1685000
1"
15
1D
10
b100 L
#1690000
0"
05
#1695000
1"
15
0D
00
#1700000
0"
05
#1705000
1"
15
1D
10
b101 L
#1710000
0"
05
#1715000
1"
15
0D
00
#1720000
0"
05
#1725000
1"
15
1D
10
b110 L
#1730000
0"
05
#1735000
1"
15
0D
00
#1740000
0"
05
#1745000
1"
15
1D
10
b111 L
#1750000
0"
05
#1755000
1"
15
0D
00
#1760000
0"
05
#1765000
1"
15
1D
10
b1000 L
b0 L
#1770000
0"
05
#1775000
1"
15
0D
00
#1780000
0"
05
#1785000
1"
15
1D
10
b1 L
#1790000
0"
05
#1795000
1"
15
0D
00
#1800000
0"
05
#1805000
1"
15
1D
10
b10 L
#1810000
0"
05
#1815000
1"
15
0D
00
#1820000
0"
05
#1825000
1"
15
1D
10
b11 L
#1830000
0"
05
#1835000
1"
15
0D
00
#1840000
0"
05
#1845000
1"
15
1D
10
b100 L
#1850000
0"
05
#1855000
1"
15
0D
00
#1860000
0"
05
#1865000
1"
15
1D
10
b101 L
#1870000
0"
05
#1875000
1"
15
0D
00
#1880000
0"
05
#1885000
1"
15
1D
10
b110 L
#1890000
0"
05
#1895000
1"
15
0D
00
#1900000
0"
05
#1905000
1"
15
1D
10
b111 L
#1910000
0"
05
#1915000
1"
15
0D
00
#1920000
0"
05
#1925000
1"
15
1D
10
b1000 L
b0 L
#1930000
0"
05
#1935000
1"
15
0D
00
#1940000
0"
05
#1945000
1"
15
1D
10
b1 L
#1950000
0"
05
#1955000
1"
15
0D
00
#1960000
0"
05
#1965000
1"
15
1D
10
b10 L
#1970000
0"
05
#1975000
1"
15
0D
00
#1980000
0"
05
#1985000
1"
15
1D
10
b11 L
